<?xml version="1.0" encoding="UTF-8"?>
<kml xmlns="http://www.opengis.net/kml/2.2">
<!-- created by GmapGIS.com -->
<Document><name>MynameKML file polygon </name><description>Some descrition</description><Style id="polyStyID_0"><LineStyle><color>FF0000FF</color><width>5</width></LineStyle><PolyStyle><color>660088ff</color></PolyStyle> </Style><Placemark><name>  </name><description></description><styleUrl>#polyStyID_0</styleUrl><Polygon><tessellate>1</tessellate><altitudeMode>clampToGround</altitudeMode><outerBoundaryIs><LinearRing><coordinates>
-74.44336,40.48874,0.0
-75.37511,40.12092,0.0
-75.18481,39.8088,0.0
-75.51721,39.66082,0.0
-75.41016,39.39375,0.0
-75.23437,39.23651,0.0
-74.9707,39.19821,0.0
-75.03662,39.03625,0.0
-74.77295,39.00211,0.0
-74.25716,39.647,0.0
-73.98307,40.38643,0.0
</coordinates></LinearRing></outerBoundaryIs></Polygon></Placemark></Document></kml>